Partnering to Protect You from Peril
…
Connections facilitating coordination nationwide

In 2014-2016 there was an outbreak of Ebola in West Africa. In late 2014, a case of Ebola was identified in Texas and health departments nationwide worked to prepare for the potential of a widespread outbreak. While this potential was never realized (there were just 4 cases eventually diagnosed in the US), it isnt difficult to imagine a large-scale infectious disease outbreak that requires coordination across the country to protect the uninfected and treat the infected.

Central network members can facilitate or control the spread of information and other resources and are often considered key or important network members. There are several different types of centrality. Two of the more commonly used are degree centrality and betweenness centrality. Degree centrality is a count of the number of connections a node has. Betweenness centrality quantifies the extent to which a node lies in the shortest path between any two other nodes in the network, often playing a bridging role.

The nodes with the highest degree and betweenness centrality may be key to spreading information and coordinating efforts nationwide. Nodes that have both high degree and high betweenness may be especially important.

health_dep_nodes$health_dep_degree <- degree(health_dep_net)

# List the health departments with the highest degree
arrange(health_dep_nodes, -health_dep_degree)

## # A tibble: 2,058 x 10
##    nacchoid tobacco nutrition state type  rurality population leader.tenure
##    <chr>      <dbl>     <dbl> <chr> <chr> <chr>         <dbl>         <dbl>
##  1 KY009          1         1 KY    coun rural         35758         10.4 
##  2 NC060          1         1 NC    coun urban        140420          4.42
##  3 KY021          1         1 KY    coun urban         50815          3.66
##  4 OK014          1         1 OK    coun urban        269908          2.64
##  5 OH066          1         0 OH    coun rural         63180         10.4 
##  6 OH092          0         1 OH    city  rural        175914          3.77
##  7 TX144          1         1 TX    coun urban       2020286         NA   
##  8 WI068          1         1 WI    coun urban         43437         18.0 
##  9 IL011         NA        NA IL    coun rural         13520         24.5 
## 10 MO049          0         0 MO    city  rural        470800         17.6 
## #  with 2,048 more rows, and 2 more variables: fte <dbl>,
## #   health_dep_degree <dbl>

# Identify bridges nodes using betweenness
health_dep_nodes$health_dep_between <- betweenness(health_dep_net)

# List the health departments with the highest betweenness
arrange(health_dep_nodes, -health_dep_between)

## # A tibble: 2,058 x 11
##    nacchoid tobacco nutrition state type  rurality population leader.tenure
##    <chr>      <dbl>     <dbl> <chr> <chr> <chr>         <dbl>         <dbl>
##  1 WA022          1         1 WA    coun urban       2079967          1.64
##  2 MA043          1         1 MA    city  urban        109694          9.00
##  3 MO049          0         0 MO    city  rural        470800         17.6 
##  4 TX144          1         1 TX    coun urban       2020286         NA   
##  5 IN053          1         1 IN    coun urban        934243         21.2 
##  6 KY047          1         1 KY    mult rural         44542         11.8 
##  7 MO102          1         1 MO    coun urban       1001876          1.16
##  8 CA045          1         1 CA    coun urban       9502247          1.58
##  9 WI062          1         1 WI    coun rural         35563          4.11
## 10 IA069          1         1 IA    coun urban        217751          3.97
## #  with 2,048 more rows, and 3 more variables: fte <dbl>,
## #   health_dep_degree <dbl>, health_dep_between <dbl>
…
